,average_sold_price_7year,street,town,number_of_sales_5year,average_sold_price_1year,number_of_sales_1year,latitude,prices_url,postcode,average_sold_price_5year,country,longitude,number_of_sales_7year,area_name,number_of_sales_3year,turnover,average_sold_price_3year,county,bounding_box
latitude_max,287902,,,534,363853,84,55.95269,https://www.zoopla.co.uk/home-values/eh1,EH1,303518,Scotland,-3.196339,704, EH1,300,10.5,320315,Edinburgh,55.959714
latitude_max,410191,,,183,510555,31,55.952424,https://www.zoopla.co.uk/home-values/eh2,EH2,419871,Scotland,-3.200405,223, EH2,98,11.3,456866,Edinburgh,55.95585
latitude_max,358266,,,3244,402409,554,55.954826,https://www.zoopla.co.uk/home-values/eh3,EH3,369753,Scotland,-3.211659,4244, EH3,1865,18.7,384273,Edinburgh,55.971016
latitude_max,281819,,,5009,313269,850,55.964743,https://www.zoopla.co.uk/home-values/eh4,EH4,285361,Scotland,-3.265307,6569, EH4,2870,17.7,292817,Edinburgh,55.979677
latitude_max,219769,,,2218,224679,397,55.972309,https://www.zoopla.co.uk/home-values/eh5,EH5,220940,Scotland,-3.2265005,2835, EH5,1381,20.2,211345,Edinburgh,55.985135
latitude_max,182077,,,4859,209659,910,55.974986,https://www.zoopla.co.uk/home-values/eh6,EH6,186509,Scotland,-3.1688215,6047, EH6,3021,18.9,194770,Edinburgh,55.987232
latitude_max,191251,,,4222,217037,792,55.961702,https://www.zoopla.co.uk/home-values/eh7,EH7,195522,Scotland,-3.1621535,5290, EH7,2688,18.7,203671,Edinburgh,55.971533
latitude_max,189012,,,2034,217412,409,55.947853,https://www.zoopla.co.uk/home-values/eh8,EH8,195516,Scotland,-3.157197,2583, EH8,1296,14.1,205655,Edinburgh,55.956832
latitude_max,351210,,,1888,393530,299,55.930624,https://www.zoopla.co.uk/home-values/eh9,EH9,359021,Scotland,-3.1854535,2533, EH9,1107,16.7,363499,Edinburgh,55.939824
latitude_max,368130,,,3178,404544,516,55.9165205,https://www.zoopla.co.uk/home-values/eh10,EH10,379715,Scotland,-3.211593,4210, EH10,1824,19.5,396368,Edinburgh,55.940854
latitude_max,159621,,,4237,185110,829,55.9315555,https://www.zoopla.co.uk/home-values/eh11,EH11,164128,Scotland,-3.259549,5278, EH11,2644,17.4,169343,Edinburgh,55.945727
latitude_max,266078,,,4180,302187,787,55.940101,https://www.zoopla.co.uk/home-values/eh12,EH12,272175,Scotland,-3.289817,5447, EH12,2610,20.7,269952,Edinburgh,55.958779
latitude_max,272261,,,1174,264925,199,55.9051585,https://www.zoopla.co.uk/home-values/eh13,EH13,281116,Scotland,-3.2472125,1501, EH13,725,16.8,284934,Edinburgh,55.914408
latitude_max,238364,,,3035,279703,574,55.892888,https://www.zoopla.co.uk/home-values/eh14,EH14,243471,Scotland,-3.3090175,3919, EH14,1904,16.1,248999,Edinburgh,55.93477
latitude_max,229408,,,2070,245511,377,55.9476445,https://www.zoopla.co.uk/home-values/eh15,EH15,234491,Scotland,-3.1133445,2609, EH15,1299,19.3,237959,Edinburgh,55.964226
latitude_max,209311,,,2688,238952,582,55.921359,https://www.zoopla.co.uk/home-values/eh16,EH16,214554,Scotland,-3.1483385,3384, EH16,1786,17,222708,Edinburgh,55.94212
latitude_max,164464,,,1521,192441,303,55.9039705,https://www.zoopla.co.uk/home-values/eh17,EH17,169427,Scotland,-3.1462125,1896, EH17,965,16.3,176738,Edinburgh,55.919207
latitude_max,274480,,,171,364529,18,55.8774125,https://www.zoopla.co.uk/home-values/eh18,EH18,287970,Scotland,-3.1193915,213, EH18,114,16.3,273861,Midlothian,55.89071
latitude_max,189177,,,1469,211878,283,55.869928,https://www.zoopla.co.uk/home-values/eh19,EH19,193929,Scotland,-3.1027425,1905, EH19,915,21.6,202847,Midlothian,55.882107
latitude_max,193876,,,513,251347,128,55.880465,https://www.zoopla.co.uk/home-values/eh20,EH20,202060,Scotland,-3.158767,625, EH20,376,14.5,218426,Midlothian,55.88898
